EESchema Schematic File Version 4
EELAYER 30 0
EELAYER END
$Descr A4 11693 8268
encoding utf-8
Sheet 1 1
Title "Kduino"
Date ""
Rev "v1.0"
Comp "Kai Gottschalk"
Comment1 ""
Comment2 ""
Comment3 ""
Comment4 ""
$EndDescr
Text GLabel 4950 6400 0    50   Input ~ 0
Analog0
Text GLabel 4950 6500 0    50   Input ~ 0
Analog1
Text GLabel 5950 6500 2    50   Input ~ 0
Analog2
Text GLabel 5950 6400 2    50   Input ~ 0
Analog3
Text GLabel 5950 6300 2    50   Input ~ 0
Analog4
Text GLabel 5950 6200 2    50   Input ~ 0
Analog5
Text GLabel 5950 6100 2    50   Input ~ 0
RESET
Text GLabel 5950 5300 2    50   Input ~ 0
Digital0
Text GLabel 5950 5400 2    50   Input ~ 0
Digital1
Text GLabel 5950 5500 2    50   Input ~ 0
Digital2
Text GLabel 5950 5600 2    50   Input ~ 0
Digital3
Text GLabel 5950 5700 2    50   Input ~ 0
Digital4
Text GLabel 5950 5800 2    50   Input ~ 0
Digital5
Text GLabel 5950 5900 2    50   Input ~ 0
Digital6
Text GLabel 5950 6000 2    50   Input ~ 0
Digital7
Text GLabel 4950 5600 0    50   Input ~ 0
Digital8
Text GLabel 4950 5700 0    50   Input ~ 0
Digital9
Text GLabel 4950 5800 0    50   Input ~ 0
Digital10
Text GLabel 4950 5900 0    50   Input ~ 0
Digital11
Text GLabel 4950 6000 0    50   Input ~ 0
Digital12
$Comp
L board-rescue:ATMEGA328P-AUR-dk_Embedded-Microcontrollers U2
U 1 1 5D6F46A3
P 5450 6100
F 0 "U2" H 5450 7281 50  0000 C CNN
F 1 "ATMEGA328P-AUR" H 5450 7190 50  0000 C CNN
F 2 "digikey-footprints:TQFP-32_7x7mm" H 5650 6300 60  0001 L CNN
F 3 "http://www.microchip.com/mymicrochip/filehandler.aspx?ddocname=en608326" H 5650 6400 60  0001 L CNN
F 4 "ATMEGA328P-AURCT-ND" H 5650 6500 60  0001 L CNN "Digi-Key_PN"
F 5 "ATMEGA328P-AUR" H 5650 6600 60  0001 L CNN "MPN"
F 6 "Integrated Circuits (ICs)" H 5650 6700 60  0001 L CNN "Category"
F 7 "Embedded - Microcontrollers" H 5650 6800 60  0001 L CNN "Family"
F 8 "http://www.microchip.com/mymicrochip/filehandler.aspx?ddocname=en608326" H 5650 6900 60  0001 L CNN "DK_Datasheet_Link"
F 9 "/product-detail/en/microchip-technology/ATMEGA328P-AUR/ATMEGA328P-AURCT-ND/3789455" H 5650 7000 60  0001 L CNN "DK_Detail_Page"
F 10 "IC MCU 8BIT 32KB FLASH 32TQFP" H 5650 7100 60  0001 L CNN "Description"
F 11 "Microchip Technology" H 5650 7200 60  0001 L CNN "Manufacturer"
F 12 "Active" H 5650 7300 60  0001 L CNN "Status"
	1    5450 6100
	1    0    0    -1  
$EndComp
$Comp
L power:GND #PWR017
U 1 1 5D712911
P 7700 2150
F 0 "#PWR017" H 7700 1900 50  0001 C CNN
F 1 "GND" H 7705 1977 50  0000 C CNN
F 2 "" H 7700 2150 50  0001 C CNN
F 3 "" H 7700 2150 50  0001 C CNN
	1    7700 2150
	1    0    0    -1  
$EndComp
$Comp
L power:GND #PWR012
U 1 1 5D717ABF
P 5450 6850
F 0 "#PWR012" H 5450 6600 50  0001 C CNN
F 1 "GND" H 5455 6677 50  0000 C CNN
F 2 "" H 5450 6850 50  0001 C CNN
F 3 "" H 5450 6850 50  0001 C CNN
	1    5450 6850
	1    0    0    -1  
$EndComp
Wire Wire Line
	5550 6700 5550 6800
Wire Wire Line
	5550 6800 5450 6800
Connection ~ 5450 6800
Wire Wire Line
	5450 6800 5450 6850
Wire Wire Line
	5350 6700 5350 6800
Wire Wire Line
	5350 6800 5450 6800
Wire Wire Line
	4950 5300 4950 5100
Wire Wire Line
	5350 5100 4950 5100
Connection ~ 4950 5100
Wire Wire Line
	4950 5100 4950 5050
Wire Wire Line
	5450 5100 5450 5050
Wire Wire Line
	5450 5050 4950 5050
Connection ~ 4950 5050
Wire Wire Line
	4950 5050 4950 5000
Wire Wire Line
	5550 5100 5550 5000
Wire Wire Line
	5550 5000 4950 5000
Connection ~ 4950 5000
Wire Wire Line
	4950 5000 4950 4950
$Comp
L Device:C C1
U 1 1 5D721857
P 3950 6000
F 0 "C1" V 3698 6000 50  0000 C CNN
F 1 "22pF" V 3789 6000 50  0000 C CNN
F 2 "Capacitor_SMD:C_0805_2012Metric" H 3988 5850 50  0001 C CNN
F 3 "~" H 3950 6000 50  0001 C CNN
	1    3950 6000
	0    1    1    0   
$EndComp
$Comp
L Device:C C2
U 1 1 5D7226B2
P 3950 6500
F 0 "C2" V 3698 6500 50  0000 C CNN
F 1 "22pF" V 3789 6500 50  0000 C CNN
F 2 "Capacitor_SMD:C_0805_2012Metric" H 3988 6350 50  0001 C CNN
F 3 "~" H 3950 6500 50  0001 C CNN
	1    3950 6500
	0    1    1    0   
$EndComp
Wire Wire Line
	4950 6200 4500 6200
Wire Wire Line
	4500 6200 4500 6000
Wire Wire Line
	4950 6300 4500 6300
Wire Wire Line
	4500 6300 4500 6500
Wire Wire Line
	3800 6500 3800 6250
Wire Wire Line
	3800 6250 3650 6250
Wire Wire Line
	3800 6000 3800 6250
Connection ~ 3800 6250
Wire Wire Line
	3650 6250 3650 6850
$Comp
L Device:LED D1
U 1 1 5D74C85B
P 2300 3450
F 0 "D1" H 2247 3528 50  0000 L CNN
F 1 "LED" V 2338 3528 50  0000 L CNN
F 2 "LED_SMD:LED_0805_2012Metric" H 2300 3450 50  0001 C CNN
F 3 "~" H 2300 3450 50  0001 C CNN
	1    2300 3450
	-1   0    0    1   
$EndComp
$Comp
L Device:LED D2
U 1 1 5D74E7C9
P 2300 3650
F 0 "D2" V 2247 3728 50  0000 L CNN
F 1 "LED" V 2338 3728 50  0000 L CNN
F 2 "LED_SMD:LED_0805_2012Metric" H 2300 3650 50  0001 C CNN
F 3 "~" H 2300 3650 50  0001 C CNN
	1    2300 3650
	-1   0    0    1   
$EndComp
Wire Wire Line
	2550 3500 2550 3450
Wire Wire Line
	2550 3450 2450 3450
Wire Wire Line
	2550 3600 2550 3650
Wire Wire Line
	2550 3650 2450 3650
$Comp
L Connector:Conn_01x08_Female J5
U 1 1 5D75F0D5
P 2450 6750
F 0 "J5" H 2478 6726 50  0000 L CNN
F 1 "Conn_01x08_Female" H 2478 6635 50  0000 L CNN
F 2 "Connector_PinSocket_2.54mm:PinSocket_1x08_P2.54mm_Vertical" H 2450 6750 50  0001 C CNN
F 3 "~" H 2450 6750 50  0001 C CNN
	1    2450 6750
	1    0    0    -1  
$EndComp
$Comp
L Connector:Conn_01x08_Female J1
U 1 1 5D7614EB
P 1000 5850
F 0 "J1" H 892 6335 50  0000 C CNN
F 1 "Conn_01x08_Female" H 892 6244 50  0000 C CNN
F 2 "Connector_PinSocket_2.54mm:PinSocket_1x08_P2.54mm_Vertical" H 1000 5850 50  0001 C CNN
F 3 "~" H 1000 5850 50  0001 C CNN
	1    1000 5850
	-1   0    0    -1  
$EndComp
$Comp
L Connector:Conn_01x10_Female J4
U 1 1 5D764987
P 2450 5850
F 0 "J4" H 2478 5826 50  0000 L CNN
F 1 "Conn_01x10_Female" H 2478 5735 50  0000 L CNN
F 2 "Connector_PinSocket_2.54mm:PinSocket_1x10_P2.54mm_Vertical" H 2450 5850 50  0001 C CNN
F 3 "~" H 2450 5850 50  0001 C CNN
	1    2450 5850
	1    0    0    1   
$EndComp
Text GLabel 2250 6250 0    50   Input ~ 0
Digital8
Text GLabel 2250 6150 0    50   Input ~ 0
Digital9
Text GLabel 2250 6050 0    50   Input ~ 0
Digital10
Text GLabel 2250 5950 0    50   Input ~ 0
Digital11
Text GLabel 2250 5850 0    50   Input ~ 0
Digital12
Text GLabel 2250 5750 0    50   Input ~ 0
Digital13
$Comp
L power:GND #PWR03
U 1 1 5D76EE66
P 1650 7150
F 0 "#PWR03" H 1650 6900 50  0001 C CNN
F 1 "GND" H 1655 6977 50  0000 C CNN
F 2 "" H 1650 7150 50  0001 C CNN
F 3 "" H 1650 7150 50  0001 C CNN
	1    1650 7150
	1    0    0    -1  
$EndComp
Wire Wire Line
	1650 7150 1650 6150
Wire Wire Line
	1650 5650 2250 5650
Wire Wire Line
	1650 6150 1200 6150
Connection ~ 1650 6150
Wire Wire Line
	1650 6150 1650 6050
Wire Wire Line
	1650 6050 1200 6050
Connection ~ 1650 6050
Wire Wire Line
	1650 6050 1650 5650
$Comp
L power:+5V #PWR025
U 1 1 5D774D0C
P 8900 1650
F 0 "#PWR025" H 8900 1500 50  0001 C CNN
F 1 "+5V" H 8915 1823 50  0000 C CNN
F 2 "" H 8900 1650 50  0001 C CNN
F 3 "" H 8900 1650 50  0001 C CNN
	1    8900 1650
	1    0    0    -1  
$EndComp
Wire Wire Line
	2250 5550 1650 5550
Wire Wire Line
	1650 5550 1650 5200
Wire Wire Line
	1200 5950 1550 5950
Wire Wire Line
	1550 5950 1550 5650
Wire Wire Line
	1550 5550 1650 5550
Connection ~ 1650 5550
Text GLabel 1200 6550 2    50   Input ~ 0
Analog0
Text GLabel 1200 6650 2    50   Input ~ 0
Analog1
Text GLabel 1200 6750 2    50   Input ~ 0
Analog2
Text GLabel 1200 6850 2    50   Input ~ 0
Analog3
Text GLabel 1200 6950 2    50   Input ~ 0
Analog4
Text GLabel 1200 7050 2    50   Input ~ 0
Analog5
Text GLabel 2250 6450 0    50   Input ~ 0
Digital7
Text GLabel 2250 6550 0    50   Input ~ 0
Digital6
Text GLabel 2250 6650 0    50   Input ~ 0
Digital5
Text GLabel 2250 6750 0    50   Input ~ 0
Digital4
Text GLabel 2250 6850 0    50   Input ~ 0
Digital3
Text GLabel 2250 6950 0    50   Input ~ 0
Digital2
Text GLabel 2100 7050 0    50   Input ~ 0
Digital1
Text GLabel 2100 7150 0    50   Input ~ 0
Digital0
Text GLabel 5650 3850 0    50   Input ~ 0
RESET
$Comp
L power:GND #PWR05
U 1 1 5D79A388
P 2000 2150
F 0 "#PWR05" H 2000 1900 50  0001 C CNN
F 1 "GND" H 2005 1977 50  0000 C CNN
F 2 "" H 2000 2150 50  0001 C CNN
F 3 "" H 2000 2150 50  0001 C CNN
	1    2000 2150
	1    0    0    -1  
$EndComp
$Comp
L Device:Fuse F1
U 1 1 5D79F477
P 2800 1000
F 0 "F1" V 2997 1000 50  0000 C CNN
F 1 "500mA" V 2906 1000 50  0000 C CNN
F 2 "Fuse:Fuse_1812_4532Metric" V 2730 1000 50  0001 C CNN
F 3 "~" H 2800 1000 50  0001 C CNN
	1    2800 1000
	0    -1   -1   0   
$EndComp
Text GLabel 1200 6250 2    50   Input ~ 0
VIN
Text GLabel 3200 1000 2    50   Input ~ 0
5VUSB
$Comp
L Device:C C4
U 1 1 5D767381
P 5700 4100
F 0 "C4" V 5448 4100 50  0000 C CNN
F 1 "0.1uF" V 5539 4100 50  0000 C CNN
F 2 "Capacitor_SMD:C_0805_2012Metric" H 5738 3950 50  0001 C CNN
F 3 "~" H 5700 4100 50  0001 C CNN
	1    5700 4100
	0    -1   -1   0   
$EndComp
Wire Wire Line
	5650 3850 5900 3850
Text GLabel 5450 4100 0    50   Input ~ 0
DTR
Wire Wire Line
	5450 4100 5550 4100
Wire Wire Line
	5850 4100 5900 4100
Wire Wire Line
	5900 4100 5900 3850
Connection ~ 5900 3850
Wire Wire Line
	5900 3850 5900 3800
$Comp
L Device:R R6
U 1 1 5D790595
P 5900 3650
F 0 "R6" H 5970 3696 50  0000 L CNN
F 1 "10k" H 5970 3605 50  0000 L CNN
F 2 "Resistor_SMD:R_0805_2012Metric" V 5830 3650 50  0001 C CNN
F 3 "~" H 5900 3650 50  0001 C CNN
	1    5900 3650
	1    0    0    -1  
$EndComp
$Comp
L power:+3.3V #PWR01
U 1 1 5D7910A6
P 1450 5200
F 0 "#PWR01" H 1450 5050 50  0001 C CNN
F 1 "+3.3V" H 1465 5373 50  0000 C CNN
F 2 "" H 1450 5200 50  0001 C CNN
F 3 "" H 1450 5200 50  0001 C CNN
	1    1450 5200
	1    0    0    -1  
$EndComp
Wire Wire Line
	1450 5200 1450 5850
Wire Wire Line
	1450 5850 1200 5850
Text GLabel 5400 2700 2    50   Input ~ 0
USBTX
Text GLabel 2100 7250 0    50   Input ~ 0
USBRX
Text GLabel 2100 7350 0    50   Input ~ 0
USBTX
Wire Wire Line
	2100 7050 2200 7050
Wire Wire Line
	2250 7150 2100 7150
Wire Wire Line
	2100 7350 2250 7350
Wire Wire Line
	2250 7350 2250 7150
Connection ~ 2250 7150
Wire Wire Line
	2100 7250 2200 7250
Wire Wire Line
	2200 7250 2200 7050
Connection ~ 2200 7050
Wire Wire Line
	2200 7050 2250 7050
Text GLabel 1200 5750 2    50   Input ~ 0
RESET
Wire Wire Line
	1200 5650 1550 5650
Connection ~ 1550 5650
Wire Wire Line
	1550 5650 1550 5550
Text GLabel 2250 5450 0    50   Input ~ 0
Analog4
Text GLabel 2250 5350 0    50   Input ~ 0
Analog5
$Comp
L power:GND #PWR07
U 1 1 5D71D1D3
P 3650 6850
F 0 "#PWR07" H 3650 6600 50  0001 C CNN
F 1 "GND" H 3655 6677 50  0000 C CNN
F 2 "" H 3650 6850 50  0001 C CNN
F 3 "" H 3650 6850 50  0001 C CNN
	1    3650 6850
	1    0    0    -1  
$EndComp
Wire Wire Line
	2850 2700 2800 2700
Wire Wire Line
	3200 2700 3150 2700
Wire Wire Line
	5200 2700 5400 2700
Wire Wire Line
	4900 2700 4300 2700
$Comp
L Device:R R3
U 1 1 5D79AD3E
P 3000 2700
F 0 "R3" V 2793 2700 50  0000 C CNN
F 1 "1k" V 2884 2700 50  0000 C CNN
F 2 "Resistor_SMD:R_0805_2012Metric" V 2930 2700 50  0001 C CNN
F 3 "~" H 3000 2700 50  0001 C CNN
	1    3000 2700
	0    1    1    0   
$EndComp
$Comp
L Device:R R5
U 1 1 5D79A79D
P 5050 2700
F 0 "R5" V 5257 2700 50  0000 C CNN
F 1 "1k" V 5166 2700 50  0000 C CNN
F 2 "Resistor_SMD:R_0805_2012Metric" V 4980 2700 50  0001 C CNN
F 3 "~" H 5050 2700 50  0001 C CNN
	1    5050 2700
	0    -1   -1   0   
$EndComp
Text GLabel 2800 2700 0    50   Input ~ 0
USBRX
$Comp
L power:GND #PWR09
U 1 1 5D7644F8
P 4400 3150
F 0 "#PWR09" H 4400 2900 50  0001 C CNN
F 1 "GND" H 4405 2977 50  0000 C CNN
F 2 "" H 4400 3150 50  0001 C CNN
F 3 "" H 4400 3150 50  0001 C CNN
	1    4400 3150
	1    0    0    -1  
$EndComp
Wire Wire Line
	4400 2800 4450 2800
Connection ~ 4400 2800
Wire Wire Line
	4400 2800 4400 2850
Wire Wire Line
	4300 2800 4400 2800
$Comp
L Device:R R4
U 1 1 5D75DD2D
P 4400 3000
F 0 "R4" H 4470 3046 50  0000 L CNN
F 1 "1k" H 4470 2955 50  0000 L CNN
F 2 "Resistor_SMD:R_0805_2012Metric" V 4330 3000 50  0001 C CNN
F 3 "~" H 4400 3000 50  0001 C CNN
	1    4400 3000
	1    0    0    -1  
$EndComp
Text GLabel 4450 2800 2    50   Input ~ 0
DTR
$Comp
L Device:C C3
U 1 1 5D74C4F6
P 4600 3300
F 0 "C3" H 4715 3346 50  0000 L CNN
F 1 "1uF" H 4715 3255 50  0000 L CNN
F 2 "Capacitor_SMD:C_0805_2012Metric" H 4638 3150 50  0001 C CNN
F 3 "~" H 4600 3300 50  0001 C CNN
	1    4600 3300
	1    0    0    -1  
$EndComp
Wire Wire Line
	3700 2000 3150 2000
Connection ~ 3700 2000
Wire Wire Line
	3700 2100 3700 2000
Wire Wire Line
	3800 2000 3700 2000
Wire Wire Line
	3800 2100 3800 2000
Wire Wire Line
	3150 2500 3150 2000
Wire Wire Line
	3200 2500 3150 2500
Wire Wire Line
	3700 4050 3700 4100
Connection ~ 3700 4050
Wire Wire Line
	4100 4050 3700 4050
Wire Wire Line
	4100 3800 4100 4050
Wire Wire Line
	3700 4000 3700 4050
Connection ~ 3700 4000
Wire Wire Line
	4000 4000 3700 4000
Wire Wire Line
	4000 3800 4000 4000
Wire Wire Line
	3700 3950 3700 4000
Connection ~ 3700 3950
Wire Wire Line
	3900 3950 3700 3950
Wire Wire Line
	3900 3800 3900 3950
Wire Wire Line
	3700 3900 3700 3950
Connection ~ 3700 3900
Wire Wire Line
	3800 3900 3700 3900
Wire Wire Line
	3800 3800 3800 3900
Wire Wire Line
	3700 3800 3700 3900
$Comp
L power:GND #PWR08
U 1 1 5D71F0E7
P 3700 4100
F 0 "#PWR08" H 3700 3850 50  0001 C CNN
F 1 "GND" H 3705 3927 50  0000 C CNN
F 2 "" H 3700 4100 50  0001 C CNN
F 3 "" H 3700 4100 50  0001 C CNN
	1    3700 4100
	1    0    0    -1  
$EndComp
Wire Wire Line
	3200 3600 2550 3600
Wire Wire Line
	3200 3500 2550 3500
$Comp
L board-rescue:FT232RL-REEL-dk_Interface-Controllers U1
U 1 1 5D7485DD
P 3900 2600
F 0 "U1" H 3750 3303 60  0000 C CNN
F 1 "FT232RL-REEL" H 3750 3197 60  0000 C CNN
F 2 "digikey-footprints:SSOP-28_W5.30mm" H 4100 2800 60  0001 L CNN
F 3 "https://www.ftdichip.com/Support/Documents/DataSheets/ICs/DS_FT232R.pdf" H 4100 2900 60  0001 L CNN
F 4 "768-1007-1-ND" H 4100 3000 60  0001 L CNN "Digi-Key_PN"
F 5 "FT232RL-REEL" H 4100 3100 60  0001 L CNN "MPN"
F 6 "Integrated Circuits (ICs)" H 4100 3200 60  0001 L CNN "Category"
F 7 "Interface - Controllers" H 4100 3300 60  0001 L CNN "Family"
F 8 "https://www.ftdichip.com/Support/Documents/DataSheets/ICs/DS_FT232R.pdf" H 4100 3400 60  0001 L CNN "DK_Datasheet_Link"
F 9 "/product-detail/en/ftdi-future-technology-devices-international-ltd/FT232RL-REEL/768-1007-1-ND/1836402" H 4100 3500 60  0001 L CNN "DK_Detail_Page"
F 10 "IC USB FS SERIAL UART 28-SSOP" H 4100 3600 60  0001 L CNN "Description"
F 11 "FTDI, Future Technology Devices International Ltd" H 4100 3700 60  0001 L CNN "Manufacturer"
F 12 "Active" H 4100 3800 60  0001 L CNN "Status"
	1    3900 2600
	1    0    0    -1  
$EndComp
Wire Wire Line
	2850 2300 3200 2300
Wire Wire Line
	2750 2400 3200 2400
Wire Wire Line
	2950 1000 3200 1000
$Comp
L board-rescue:1935161-dk_Terminal-Blocks-Wire-to-Board J6
U 1 1 5D8B462F
P 6800 1650
F 0 "J6" V 6575 1733 50  0000 C CNN
F 1 "1935161" V 6666 1733 50  0000 C CNN
F 2 "digikey-footprints:Terminal_Block_D1.3mm_P5mm" H 7000 1850 60  0001 L CNN
F 3 "https://media.digikey.com/pdf/Data%20Sheets/Phoenix%20Contact%20PDFs/1935161.pdf" H 7000 1950 60  0001 L CNN
F 4 "277-1667-ND" H 7000 2050 60  0001 L CNN "Digi-Key_PN"
F 5 "1935161" H 7000 2150 60  0001 L CNN "MPN"
F 6 "Connectors, Interconnects" H 7000 2250 60  0001 L CNN "Category"
F 7 "Terminal Blocks - Wire to Board" H 7000 2350 60  0001 L CNN "Family"
F 8 "https://media.digikey.com/pdf/Data%20Sheets/Phoenix%20Contact%20PDFs/1935161.pdf" H 7000 2450 60  0001 L CNN "DK_Datasheet_Link"
F 9 "/product-detail/en/phoenix-contact/1935161/277-1667-ND/568614" H 7000 2550 60  0001 L CNN "DK_Detail_Page"
F 10 "TERM BLK 2POS SIDE ENTRY 5MM PCB" H 7000 2650 60  0001 L CNN "Description"
F 11 "Phoenix Contact" H 7000 2750 60  0001 L CNN "Manufacturer"
F 12 "Active" H 7000 2850 60  0001 L CNN "Status"
	1    6800 1650
	0    1    1    0   
$EndComp
$Comp
L Device:D D3
U 1 1 5D8E67E0
P 7300 1650
F 0 "D3" H 7300 1434 50  0000 C CNN
F 1 "D" H 7300 1525 50  0000 C CNN
F 2 "Diode_SMD:D_SMA" H 7300 1650 50  0001 C CNN
F 3 "~" H 7300 1650 50  0001 C CNN
	1    7300 1650
	-1   0    0    1   
$EndComp
$Comp
L Device:CP1 C5
U 1 1 5D8E786D
P 7700 1800
F 0 "C5" H 7815 1846 50  0000 L CNN
F 1 "47uF" H 7815 1755 50  0000 L CNN
F 2 "Capacitor_SMD:CP_Elec_6.3x7.7" H 7700 1800 50  0001 C CNN
F 3 "~" H 7700 1800 50  0001 C CNN
	1    7700 1800
	1    0    0    -1  
$EndComp
$Comp
L Device:CP1 C7
U 1 1 5D8E8BB1
P 9050 1800
F 0 "C7" H 9165 1846 50  0000 L CNN
F 1 "47uF" H 9165 1755 50  0000 L CNN
F 2 "Capacitor_SMD:CP_Elec_6.3x7.7" H 9050 1800 50  0001 C CNN
F 3 "~" H 9050 1800 50  0001 C CNN
	1    9050 1800
	1    0    0    -1  
$EndComp
$Comp
L board-rescue:NCP1117ST50T3G-dk_PMIC-Voltage-Regulators-Linear U4
U 1 1 5D8E94D7
P 8300 1650
F 0 "U4" H 8350 1937 60  0000 C CNN
F 1 "NCP1117ST50T3G" H 8350 1831 60  0000 C CNN
F 2 "digikey-footprints:SOT-223" H 8500 1850 60  0001 L CNN
F 3 "https://www.onsemi.com/pub/Collateral/NCP1117-D.PDF" H 8500 1950 60  0001 L CNN
F 4 "NCP1117ST50T3GOSCT-ND" H 8500 2050 60  0001 L CNN "Digi-Key_PN"
F 5 "NCP1117ST50T3G" H 8500 2150 60  0001 L CNN "MPN"
F 6 "Integrated Circuits (ICs)" H 8500 2250 60  0001 L CNN "Category"
F 7 "PMIC - Voltage Regulators - Linear" H 8500 2350 60  0001 L CNN "Family"
F 8 "https://www.onsemi.com/pub/Collateral/NCP1117-D.PDF" H 8500 2450 60  0001 L CNN "DK_Datasheet_Link"
F 9 "/product-detail/en/on-semiconductor/NCP1117ST50T3G/NCP1117ST50T3GOSCT-ND/1967217" H 8500 2550 60  0001 L CNN "DK_Detail_Page"
F 10 "IC REG LINEAR 5V 1A SOT223" H 8500 2650 60  0001 L CNN "Description"
F 11 "ON Semiconductor" H 8500 2750 60  0001 L CNN "Manufacturer"
F 12 "Active" H 8500 2850 60  0001 L CNN "Status"
	1    8300 1650
	1    0    0    -1  
$EndComp
Wire Wire Line
	7000 1650 7150 1650
Wire Wire Line
	7450 1650 7550 1650
Text GLabel 7550 1300 1    50   Input ~ 0
VIN
Wire Wire Line
	7550 1300 7550 1650
Connection ~ 7550 1650
Wire Wire Line
	7550 1650 7700 1650
$Comp
L power:GND #PWR015
U 1 1 5D9274C1
P 7000 2150
F 0 "#PWR015" H 7000 1900 50  0001 C CNN
F 1 "GND" H 7005 1977 50  0000 C CNN
F 2 "" H 7000 2150 50  0001 C CNN
F 3 "" H 7000 2150 50  0001 C CNN
	1    7000 2150
	1    0    0    -1  
$EndComp
$Comp
L power:GND #PWR021
U 1 1 5D92DB77
P 8300 2150
F 0 "#PWR021" H 8300 1900 50  0001 C CNN
F 1 "GND" H 8305 1977 50  0000 C CNN
F 2 "" H 8300 2150 50  0001 C CNN
F 3 "" H 8300 2150 50  0001 C CNN
	1    8300 2150
	1    0    0    -1  
$EndComp
$Comp
L power:GND #PWR026
U 1 1 5D92E084
P 9050 2150
F 0 "#PWR026" H 9050 1900 50  0001 C CNN
F 1 "GND" H 9055 1977 50  0000 C CNN
F 2 "" H 9050 2150 50  0001 C CNN
F 3 "" H 9050 2150 50  0001 C CNN
	1    9050 2150
	1    0    0    -1  
$EndComp
Wire Wire Line
	7000 1750 7000 2150
Wire Wire Line
	7700 1950 7700 2150
Wire Wire Line
	8300 2050 8300 2150
Wire Wire Line
	9050 1950 9050 2150
Wire Wire Line
	8700 1750 8900 1750
Wire Wire Line
	8900 1750 8900 1650
Connection ~ 8900 1650
Wire Wire Line
	8900 1650 9050 1650
$Comp
L Device:C C9
U 1 1 5D95AA47
P 9450 1800
F 0 "C9" H 9565 1846 50  0000 L CNN
F 1 ".1uF" H 9565 1755 50  0000 L CNN
F 2 "Capacitor_SMD:C_0805_2012Metric" H 9488 1650 50  0001 C CNN
F 3 "~" H 9450 1800 50  0001 C CNN
	1    9450 1800
	1    0    0    -1  
$EndComp
Wire Wire Line
	9050 1650 9450 1650
Connection ~ 9050 1650
$Comp
L power:GND #PWR029
U 1 1 5D9616A2
P 9450 2150
F 0 "#PWR029" H 9450 1900 50  0001 C CNN
F 1 "GND" H 9455 1977 50  0000 C CNN
F 2 "" H 9450 2150 50  0001 C CNN
F 3 "" H 9450 2150 50  0001 C CNN
	1    9450 2150
	1    0    0    -1  
$EndComp
Wire Wire Line
	9450 1950 9450 2150
$Comp
L power:+5V #PWR06
U 1 1 5D968A51
P 3150 2000
F 0 "#PWR06" H 3150 1850 50  0001 C CNN
F 1 "+5V" H 3165 2173 50  0000 C CNN
F 2 "" H 3150 2000 50  0001 C CNN
F 3 "" H 3150 2000 50  0001 C CNN
	1    3150 2000
	1    0    0    -1  
$EndComp
Connection ~ 3150 2000
$Comp
L power:+5V #PWR02
U 1 1 5D968F88
P 1650 5200
F 0 "#PWR02" H 1650 5050 50  0001 C CNN
F 1 "+5V" H 1665 5373 50  0000 C CNN
F 2 "" H 1650 5200 50  0001 C CNN
F 3 "" H 1650 5200 50  0001 C CNN
	1    1650 5200
	1    0    0    -1  
$EndComp
Text GLabel 7300 3100 1    50   Input ~ 0
VIN
$Comp
L Device:R R7
U 1 1 5D96CE7E
P 7300 3350
F 0 "R7" H 7370 3396 50  0000 L CNN
F 1 "10k" H 7370 3305 50  0000 L CNN
F 2 "Resistor_SMD:R_0805_2012Metric" V 7230 3350 50  0001 C CNN
F 3 "~" H 7300 3350 50  0001 C CNN
	1    7300 3350
	1    0    0    -1  
$EndComp
$Comp
L Device:R R8
U 1 1 5D96D749
P 7300 3950
F 0 "R8" H 7370 3996 50  0000 L CNN
F 1 "10k" H 7370 3905 50  0000 L CNN
F 2 "Resistor_SMD:R_0805_2012Metric" V 7230 3950 50  0001 C CNN
F 3 "~" H 7300 3950 50  0001 C CNN
	1    7300 3950
	1    0    0    -1  
$EndComp
$Comp
L Device:C C6
U 1 1 5D96DF63
P 8350 3100
F 0 "C6" V 8098 3100 50  0000 C CNN
F 1 "0.1uF" V 8189 3100 50  0000 C CNN
F 2 "Capacitor_SMD:C_0805_2012Metric" H 8388 2950 50  0001 C CNN
F 3 "~" H 8350 3100 50  0001 C CNN
	1    8350 3100
	0    1    1    0   
$EndComp
$Comp
L Device:C C8
U 1 1 5D96E2E3
P 9250 4500
F 0 "C8" H 9365 4546 50  0000 L CNN
F 1 "1uF" H 9365 4455 50  0000 L CNN
F 2 "Capacitor_SMD:C_0805_2012Metric" H 9288 4350 50  0001 C CNN
F 3 "~" H 9250 4500 50  0001 C CNN
	1    9250 4500
	1    0    0    -1  
$EndComp
$Comp
L Device:C C10
U 1 1 5D96ED55
P 10700 4500
F 0 "C10" H 10815 4546 50  0000 L CNN
F 1 "1uF" H 10815 4455 50  0000 L CNN
F 2 "Capacitor_SMD:C_0805_2012Metric" H 10738 4350 50  0001 C CNN
F 3 "~" H 10700 4500 50  0001 C CNN
	1    10700 4500
	1    0    0    -1  
$EndComp
$Comp
L board-rescue:LM358DR-dk_Linear-Amplifiers-Instrumentation-OP-Amps-Buffer-Amps U3
U 1 1 5D9708BD
P 8200 3650
F 0 "U3" H 8544 3703 60  0000 L CNN
F 1 "LM358DR" H 8544 3597 60  0000 L CNN
F 2 "digikey-footprints:SOIC-8_W3.9mm" H 8400 3850 60  0001 L CNN
F 3 "http://www.ti.com/general/docs/suppproductinfo.tsp?distId=10&gotoUrl=http%3A%2F%2Fwww.ti.com%2Flit%2Fgpn%2Flm358" H 8400 3950 60  0001 L CNN
F 4 "296-1014-1-ND" H 8400 4050 60  0001 L CNN "Digi-Key_PN"
F 5 "LM358DR" H 8400 4150 60  0001 L CNN "MPN"
F 6 "Integrated Circuits (ICs)" H 8400 4250 60  0001 L CNN "Category"
F 7 "Linear - Amplifiers - Instrumentation, OP Amps, Buffer Amps" H 8400 4350 60  0001 L CNN "Family"
F 8 "http://www.ti.com/general/docs/suppproductinfo.tsp?distId=10&gotoUrl=http%3A%2F%2Fwww.ti.com%2Flit%2Fgpn%2Flm358" H 8400 4450 60  0001 L CNN "DK_Datasheet_Link"
F 9 "/product-detail/en/texas-instruments/LM358DR/296-1014-1-ND/404838" H 8400 4550 60  0001 L CNN "DK_Detail_Page"
F 10 "IC OPAMP GP 2 CIRCUIT 8SOIC" H 8400 4650 60  0001 L CNN "Description"
F 11 "Texas Instruments" H 8400 4750 60  0001 L CNN "Manufacturer"
F 12 "Active" H 8400 4850 60  0001 L CNN "Status"
	1    8200 3650
	1    0    0    -1  
$EndComp
$Comp
L power:+3.3V #PWR018
U 1 1 5D9A4356
P 7750 3100
F 0 "#PWR018" H 7750 2950 50  0001 C CNN
F 1 "+3.3V" H 7765 3273 50  0000 C CNN
F 2 "" H 7750 3100 50  0001 C CNN
F 3 "" H 7750 3100 50  0001 C CNN
	1    7750 3100
	1    0    0    -1  
$EndComp
Wire Wire Line
	7900 3550 7750 3550
Wire Wire Line
	7300 3100 7300 3200
$Comp
L power:GND #PWR016
U 1 1 5D9CC57C
P 7300 4100
F 0 "#PWR016" H 7300 3850 50  0001 C CNN
F 1 "GND" H 7305 3927 50  0000 C CNN
F 2 "" H 7300 4100 50  0001 C CNN
F 3 "" H 7300 4100 50  0001 C CNN
	1    7300 4100
	1    0    0    -1  
$EndComp
$Comp
L power:GND #PWR024
U 1 1 5D9CD3AA
P 8600 3100
F 0 "#PWR024" H 8600 2850 50  0001 C CNN
F 1 "GND" H 8605 2927 50  0000 C CNN
F 2 "" H 8600 3100 50  0001 C CNN
F 3 "" H 8600 3100 50  0001 C CNN
	1    8600 3100
	1    0    0    -1  
$EndComp
Wire Wire Line
	8500 3100 8600 3100
$Comp
L board-rescue:FDN340P-FDN340P Q1
U 1 1 5D9DCEC8
P 8750 4200
F 0 "Q1" V 8893 4200 50  0000 C CNN
F 1 "FDN340P" V 8984 4200 50  0000 C CNN
F 2 "FDN340P:SSOT-3" H 8750 4200 50  0001 L BNN
F 3 "" H 8750 4200 50  0001 L BNN
F 4 "Unavailable" H 8750 4200 50  0001 L BNN "Field4"
F 5 "MICROSS/On Semiconductor" H 8750 4200 50  0001 L BNN "Field5"
F 6 "Die Assymertrical For Fdc6329l" H 8750 4200 50  0001 L BNN "Field6"
F 7 "SC-59 ON Semiconductor" H 8750 4200 50  0001 L BNN "Field7"
F 8 "None" H 8750 4200 50  0001 L BNN "Field8"
	1    8750 4200
	0    -1   1    0   
$EndComp
Wire Wire Line
	7750 3100 7750 3550
Wire Wire Line
	8200 3100 8200 3450
$Comp
L power:+5V #PWR019
U 1 1 5D9FBC5B
P 8200 2800
F 0 "#PWR019" H 8200 2650 50  0001 C CNN
F 1 "+5V" H 8215 2973 50  0000 C CNN
F 2 "" H 8200 2800 50  0001 C CNN
F 3 "" H 8200 2800 50  0001 C CNN
	1    8200 2800
	1    0    0    -1  
$EndComp
Wire Wire Line
	8200 2800 8200 3100
Connection ~ 8200 3100
$Comp
L power:GND #PWR020
U 1 1 5DA1F074
P 8200 4100
F 0 "#PWR020" H 8200 3850 50  0001 C CNN
F 1 "GND" H 8205 3927 50  0000 C CNN
F 2 "" H 8200 4100 50  0001 C CNN
F 3 "" H 8200 4100 50  0001 C CNN
	1    8200 4100
	1    0    0    -1  
$EndComp
Wire Wire Line
	8200 3850 8200 4100
Wire Wire Line
	8500 3650 8850 3650
Wire Wire Line
	8850 3650 8850 4000
Text GLabel 8450 4100 1    50   Input ~ 0
5VUSB
Wire Wire Line
	8450 4100 8450 4200
Wire Wire Line
	8450 4200 8550 4200
$Comp
L board-rescue:LP2985-33DBVR-dk_PMIC-Voltage-Regulators-Linear U6
U 1 1 5DA4421D
P 10050 4200
F 0 "U6" H 10050 4703 60  0000 C CNN
F 1 "LP2985-33DBVR" H 10050 4597 60  0000 C CNN
F 2 "digikey-footprints:SOT-753" H 10250 4400 60  0001 L CNN
F 3 "http://www.ti.com/general/docs/suppproductinfo.tsp?distId=10&gotoUrl=http%3A%2F%2Fwww.ti.com%2Flit%2Fgpn%2Flp2985" H 10250 4500 60  0001 L CNN
F 4 "296-18476-1-ND" H 10250 4600 60  0001 L CNN "Digi-Key_PN"
F 5 "LP2985-33DBVR" H 10250 4700 60  0001 L CNN "MPN"
F 6 "Integrated Circuits (ICs)" H 10250 4800 60  0001 L CNN "Category"
F 7 "PMIC - Voltage Regulators - Linear" H 10250 4900 60  0001 L CNN "Family"
F 8 "http://www.ti.com/general/docs/suppproductinfo.tsp?distId=10&gotoUrl=http%3A%2F%2Fwww.ti.com%2Flit%2Fgpn%2Flp2985" H 10250 5000 60  0001 L CNN "DK_Datasheet_Link"
F 9 "/product-detail/en/texas-instruments/LP2985-33DBVR/296-18476-1-ND/809911" H 10250 5100 60  0001 L CNN "DK_Detail_Page"
F 10 "IC REG LINEAR 3.3V 150MA SOT23-5" H 10250 5200 60  0001 L CNN "Description"
F 11 "Texas Instruments" H 10250 5300 60  0001 L CNN "Manufacturer"
F 12 "Active" H 10250 5400 60  0001 L CNN "Status"
	1    10050 4200
	1    0    0    -1  
$EndComp
$Comp
L power:+5V #PWR027
U 1 1 5DA7C22A
P 9050 3850
F 0 "#PWR027" H 9050 3700 50  0001 C CNN
F 1 "+5V" H 9065 4023 50  0000 C CNN
F 2 "" H 9050 3850 50  0001 C CNN
F 3 "" H 9050 3850 50  0001 C CNN
	1    9050 3850
	1    0    0    -1  
$EndComp
Wire Wire Line
	9650 4200 9600 4200
Wire Wire Line
	9050 3850 9050 4200
Connection ~ 9050 4200
Wire Wire Line
	9050 4200 8950 4200
Wire Wire Line
	9250 4350 9250 4200
Connection ~ 9250 4200
Wire Wire Line
	9250 4200 9050 4200
$Comp
L power:GND #PWR028
U 1 1 5DAA87FA
P 9250 4700
F 0 "#PWR028" H 9250 4450 50  0001 C CNN
F 1 "GND" H 9255 4527 50  0000 C CNN
F 2 "" H 9250 4700 50  0001 C CNN
F 3 "" H 9250 4700 50  0001 C CNN
	1    9250 4700
	1    0    0    -1  
$EndComp
Wire Wire Line
	9250 4650 9250 4700
Wire Wire Line
	10150 3900 9600 3900
Wire Wire Line
	9600 3900 9600 4200
Connection ~ 9600 4200
Wire Wire Line
	9600 4200 9250 4200
$Comp
L power:GND #PWR031
U 1 1 5DAB8AF6
P 10050 4700
F 0 "#PWR031" H 10050 4450 50  0001 C CNN
F 1 "GND" H 10055 4527 50  0000 C CNN
F 2 "" H 10050 4700 50  0001 C CNN
F 3 "" H 10050 4700 50  0001 C CNN
	1    10050 4700
	1    0    0    -1  
$EndComp
$Comp
L power:+3.3V #PWR032
U 1 1 5DAC1851
P 10700 4050
F 0 "#PWR032" H 10700 3900 50  0001 C CNN
F 1 "+3.3V" H 10715 4223 50  0000 C CNN
F 2 "" H 10700 4050 50  0001 C CNN
F 3 "" H 10700 4050 50  0001 C CNN
	1    10700 4050
	1    0    0    -1  
$EndComp
Wire Wire Line
	10450 4200 10700 4200
Wire Wire Line
	10700 4200 10700 4050
Wire Wire Line
	10700 4200 10700 4350
Connection ~ 10700 4200
$Comp
L power:GND #PWR033
U 1 1 5DAD166B
P 10700 4700
F 0 "#PWR033" H 10700 4450 50  0001 C CNN
F 1 "GND" H 10705 4527 50  0000 C CNN
F 2 "" H 10700 4700 50  0001 C CNN
F 3 "" H 10700 4700 50  0001 C CNN
	1    10700 4700
	1    0    0    -1  
$EndComp
Wire Wire Line
	10700 4650 10700 4700
$Comp
L power:+5V #PWR011
U 1 1 5D968FEE
P 4950 4950
F 0 "#PWR011" H 4950 4800 50  0001 C CNN
F 1 "+5V" H 4965 5123 50  0000 C CNN
F 2 "" H 4950 4950 50  0001 C CNN
F 3 "" H 4950 4950 50  0001 C CNN
	1    4950 4950
	1    0    0    -1  
$EndComp
$Comp
L board-rescue:LM358DR-dk_Linear-Amplifiers-Instrumentation-OP-Amps-Buffer-Amps U5
U 1 1 5DAEA211
P 8150 5300
F 0 "U5" H 8494 5353 60  0000 L CNN
F 1 "LM358DR" H 8494 5247 60  0000 L CNN
F 2 "digikey-footprints:SOIC-8_W3.9mm" H 8350 5500 60  0001 L CNN
F 3 "http://www.ti.com/general/docs/suppproductinfo.tsp?distId=10&gotoUrl=http%3A%2F%2Fwww.ti.com%2Flit%2Fgpn%2Flm358" H 8350 5600 60  0001 L CNN
F 4 "296-1014-1-ND" H 8350 5700 60  0001 L CNN "Digi-Key_PN"
F 5 "LM358DR" H 8350 5800 60  0001 L CNN "MPN"
F 6 "Integrated Circuits (ICs)" H 8350 5900 60  0001 L CNN "Category"
F 7 "Linear - Amplifiers - Instrumentation, OP Amps, Buffer Amps" H 8350 6000 60  0001 L CNN "Family"
F 8 "http://www.ti.com/general/docs/suppproductinfo.tsp?distId=10&gotoUrl=http%3A%2F%2Fwww.ti.com%2Flit%2Fgpn%2Flm358" H 8350 6100 60  0001 L CNN "DK_Datasheet_Link"
F 9 "/product-detail/en/texas-instruments/LM358DR/296-1014-1-ND/404838" H 8350 6200 60  0001 L CNN "DK_Detail_Page"
F 10 "IC OPAMP GP 2 CIRCUIT 8SOIC" H 8350 6300 60  0001 L CNN "Description"
F 11 "Texas Instruments" H 8350 6400 60  0001 L CNN "Manufacturer"
F 12 "Active" H 8350 6500 60  0001 L CNN "Status"
	1    8150 5300
	1    0    0    -1  
$EndComp
Text GLabel 7450 5200 0    50   Input ~ 0
Digital13
Wire Wire Line
	7450 5200 7850 5200
$Comp
L power:+5V #PWR022
U 1 1 5DAFC86C
P 8150 4900
F 0 "#PWR022" H 8150 4750 50  0001 C CNN
F 1 "+5V" H 8165 5073 50  0000 C CNN
F 2 "" H 8150 4900 50  0001 C CNN
F 3 "" H 8150 4900 50  0001 C CNN
	1    8150 4900
	1    0    0    -1  
$EndComp
Wire Wire Line
	8150 4900 8150 5100
$Comp
L power:GND #PWR023
U 1 1 5DB0519E
P 8150 5800
F 0 "#PWR023" H 8150 5550 50  0001 C CNN
F 1 "GND" H 8155 5627 50  0000 C CNN
F 2 "" H 8150 5800 50  0001 C CNN
F 3 "" H 8150 5800 50  0001 C CNN
	1    8150 5800
	1    0    0    -1  
$EndComp
Wire Wire Line
	8150 5800 8150 5500
$Comp
L Device:R R9
U 1 1 5DB0E4AC
P 8850 5300
F 0 "R9" H 8920 5346 50  0000 L CNN
F 1 "510" H 8920 5255 50  0000 L CNN
F 2 "Resistor_SMD:R_0805_2012Metric" V 8780 5300 50  0001 C CNN
F 3 "~" H 8850 5300 50  0001 C CNN
	1    8850 5300
	0    1    1    0   
$EndComp
$Comp
L Device:LED D4
U 1 1 5DB0ED77
P 9150 5300
F 0 "D4" H 9143 5516 50  0000 C CNN
F 1 "Green" H 9143 5425 50  0000 C CNN
F 2 "LED_SMD:LED_0805_2012Metric" H 9150 5300 50  0001 C CNN
F 3 "~" H 9150 5300 50  0001 C CNN
	1    9150 5300
	-1   0    0    1   
$EndComp
Wire Wire Line
	8700 5300 8500 5300
$Comp
L power:GND #PWR030
U 1 1 5DB19219
P 9350 5750
F 0 "#PWR030" H 9350 5500 50  0001 C CNN
F 1 "GND" H 9355 5577 50  0000 C CNN
F 2 "" H 9350 5750 50  0001 C CNN
F 3 "" H 9350 5750 50  0001 C CNN
	1    9350 5750
	1    0    0    -1  
$EndComp
Wire Wire Line
	9300 5300 9350 5300
Wire Wire Line
	9350 5300 9350 5750
Wire Wire Line
	7850 5400 7750 5400
Wire Wire Line
	7750 5400 7750 5650
Wire Wire Line
	7750 5650 8500 5650
Wire Wire Line
	8500 5650 8500 5300
Connection ~ 8500 5300
Wire Wire Line
	8500 5300 8450 5300
Text GLabel 4950 6100 0    50   Input ~ 0
Digital13
NoConn ~ 1850 1150
NoConn ~ 1850 1250
NoConn ~ 1850 1450
NoConn ~ 850  1150
NoConn ~ 850  1250
NoConn ~ 1850 1950
NoConn ~ 1850 2050
NoConn ~ 850  1750
NoConn ~ 3200 3400
NoConn ~ 3200 3300
NoConn ~ 3200 3200
NoConn ~ 3200 3100
NoConn ~ 3200 3000
NoConn ~ 3200 2900
NoConn ~ 3200 2800
NoConn ~ 3200 2600
NoConn ~ 4950 5400
NoConn ~ 4950 5500
NoConn ~ 10450 4300
$Comp
L power:+5V #PWR0101
U 1 1 5DC07DE8
P 5900 3500
F 0 "#PWR0101" H 5900 3350 50  0001 C CNN
F 1 "+5V" H 5915 3673 50  0000 C CNN
F 2 "" H 5900 3500 50  0001 C CNN
F 3 "" H 5900 3500 50  0001 C CNN
	1    5900 3500
	1    0    0    -1  
$EndComp
NoConn ~ 4300 2600
NoConn ~ 4300 2900
NoConn ~ 1200 5550
Wire Wire Line
	5450 6700 5450 6800
Wire Wire Line
	8000 1650 7700 1650
Connection ~ 7700 1650
Wire Wire Line
	8700 1650 8900 1650
Wire Wire Line
	1750 3450 1600 3450
Wire Wire Line
	1600 3650 1600 3450
Wire Wire Line
	1750 3650 1600 3650
$Comp
L Device:R R2
U 1 1 5D756930
P 1900 3650
F 0 "R2" V 1693 3650 50  0000 C CNN
F 1 "1k" V 1784 3650 50  0000 C CNN
F 2 "Resistor_SMD:R_0805_2012Metric" V 1830 3650 50  0001 C CNN
F 3 "~" H 1900 3650 50  0001 C CNN
	1    1900 3650
	0    1    1    0   
$EndComp
$Comp
L Device:R R1
U 1 1 5D755F32
P 1900 3450
F 0 "R1" V 1693 3450 50  0000 C CNN
F 1 "1k" V 1784 3450 50  0000 C CNN
F 2 "Resistor_SMD:R_0805_2012Metric" V 1830 3450 50  0001 C CNN
F 3 "~" H 1900 3450 50  0001 C CNN
	1    1900 3450
	0    1    1    0   
$EndComp
Wire Wire Line
	2050 3450 2150 3450
Wire Wire Line
	2150 3650 2050 3650
$Comp
L power:+5V #PWR0102
U 1 1 5DC72322
P 1600 3250
F 0 "#PWR0102" H 1600 3100 50  0001 C CNN
F 1 "+5V" H 1615 3423 50  0000 C CNN
F 2 "" H 1600 3250 50  0001 C CNN
F 3 "" H 1600 3250 50  0001 C CNN
	1    1600 3250
	1    0    0    -1  
$EndComp
Wire Wire Line
	1600 3450 1600 3250
Connection ~ 1600 3450
Wire Wire Line
	10050 4500 10050 4700
Wire Wire Line
	7300 3500 7300 3750
Wire Wire Line
	7900 3750 7300 3750
Connection ~ 7300 3750
Wire Wire Line
	7300 3750 7300 3800
$Comp
L board-rescue:PTS645SM43SMTR92_LFS-dk_Tactile-Switches S1
U 1 1 5DCD04F0
P 6450 3750
F 0 "S1" H 6450 4097 60  0000 C CNN
F 1 "PTS645SM43SMTR92_LFS" H 6450 3991 60  0000 C CNN
F 2 "digikey-footprints:Switch_Tactile_SMD_6x6mm_PTS645" H 6650 3950 60  0001 L CNN
F 3 "https://www.ckswitches.com/media/1471/pts645.pdf" H 6650 4050 60  0001 L CNN
F 4 "CKN9112CT-ND" H 6650 4150 60  0001 L CNN "Digi-Key_PN"
F 5 "PTS645SM43SMTR92 LFS" H 6650 4250 60  0001 L CNN "MPN"
F 6 "Switches" H 6650 4350 60  0001 L CNN "Category"
F 7 "Tactile Switches" H 6650 4450 60  0001 L CNN "Family"
F 8 "https://www.ckswitches.com/media/1471/pts645.pdf" H 6650 4550 60  0001 L CNN "DK_Datasheet_Link"
F 9 "/product-detail/en/c-k/PTS645SM43SMTR92-LFS/CKN9112CT-ND/1146934" H 6650 4650 60  0001 L CNN "DK_Detail_Page"
F 10 "SWITCH TACTILE SPST-NO 0.05A 12V" H 6650 4750 60  0001 L CNN "Description"
F 11 "C&K" H 6650 4850 60  0001 L CNN "Manufacturer"
F 12 "Active" H 6650 4950 60  0001 L CNN "Status"
	1    6450 3750
	1    0    0    -1  
$EndComp
$Comp
L power:GND #PWR014
U 1 1 5D77BEDE
P 6750 3850
F 0 "#PWR014" H 6750 3600 50  0001 C CNN
F 1 "GND" H 6755 3677 50  0000 C CNN
F 2 "" H 6750 3850 50  0001 C CNN
F 3 "" H 6750 3850 50  0001 C CNN
	1    6750 3850
	1    0    0    -1  
$EndComp
Wire Wire Line
	5900 3850 6150 3850
Wire Wire Line
	6150 3850 6150 3650
Wire Wire Line
	6150 3650 6250 3650
Connection ~ 6150 3850
Wire Wire Line
	6150 3850 6250 3850
Wire Wire Line
	6650 3850 6750 3850
Wire Wire Line
	6650 3650 6750 3650
Wire Wire Line
	6750 3650 6750 3850
Connection ~ 6750 3850
Wire Wire Line
	4100 6000 4250 6000
Wire Wire Line
	4100 6500 4250 6500
Wire Wire Line
	4250 6450 4250 6500
Connection ~ 4250 6500
Wire Wire Line
	4250 6500 4500 6500
Wire Wire Line
	4250 6050 4250 6000
Connection ~ 4250 6000
Wire Wire Line
	4250 6000 4500 6000
$Comp
L board-rescue:ECS-160-20-3X-TR-ECS-160-20-3X-TR Y1
U 1 1 5DD955B4
P 4250 6250
F 0 "Y1" V 4204 6350 50  0000 L CNN
F 1 "ECS-160-20-3X-TR" V 4295 6350 50  0000 L CNN
F 2 "ECS-160-20-3X-TR:XTAL_ECS-160-20-3X-TR" H 4250 6250 50  0001 L BNN
F 3 "" H 4250 6250 50  0001 L BNN
F 4 "ECS Inc." H 4250 6250 50  0001 L BNN "Field4"
F 5 "https://www.digikey.com/product-detail/en/ecs-inc/ECS-160-20-3X-TR/XC1776CT-ND/2676640?utm_source=snapeda&utm_medium=aggregator&utm_campaign=symbol" H 4250 6250 50  0001 L BNN "Field5"
F 6 "XC1776CT-ND" H 4250 6250 50  0001 L BNN "Field6"
F 7 "HC49/US ECS International" H 4250 6250 50  0001 L BNN "Field7"
F 8 "ECS-160-20-3X-TR" H 4250 6250 50  0001 L BNN "Field8"
	1    4250 6250
	0    1    1    0   
$EndComp
Wire Wire Line
	4300 2500 4600 2500
Wire Wire Line
	4600 2500 4600 3150
Wire Wire Line
	4600 3450 4600 4050
Wire Wire Line
	4600 4050 4100 4050
Connection ~ 4100 4050
$Comp
L Device:C C11
U 1 1 5D7C92FD
P 4050 2000
F 0 "C11" V 3798 2000 50  0000 C CNN
F 1 "100nF" V 3889 2000 50  0000 C CNN
F 2 "Capacitor_SMD:C_0805_2012Metric" H 4088 1850 50  0001 C CNN
F 3 "~" H 4050 2000 50  0001 C CNN
	1    4050 2000
	0    1    1    0   
$EndComp
$Comp
L power:GND #PWR04
U 1 1 5D7C9C31
P 4400 2000
F 0 "#PWR04" H 4400 1750 50  0001 C CNN
F 1 "GND" H 4405 1827 50  0000 C CNN
F 2 "" H 4400 2000 50  0001 C CNN
F 3 "" H 4400 2000 50  0001 C CNN
	1    4400 2000
	1    0    0    -1  
$EndComp
Wire Wire Line
	4200 2000 4400 2000
Wire Wire Line
	3900 2000 3800 2000
Connection ~ 3800 2000
$Comp
L Connector:Conn_01x06_Female J2
U 1 1 5D76BCEA
P 1000 6750
F 0 "J2" H 892 7135 50  0000 C CNN
F 1 "Conn_01x06_Female" H 892 7044 50  0000 C CNN
F 2 "Connector_PinSocket_2.54mm:PinSocket_1x06_P2.54mm_Vertical" H 1000 6750 50  0001 C CNN
F 3 "~" H 1000 6750 50  0001 C CNN
	1    1000 6750
	-1   0    0    -1  
$EndComp
Wire Wire Line
	1850 1050 2000 1050
Wire Wire Line
	2000 1050 2000 2150
Wire Wire Line
	2000 2150 1850 2150
Connection ~ 2000 2150
$Comp
L power:GND #PWR0103
U 1 1 5D85104B
P 750 2150
F 0 "#PWR0103" H 750 1900 50  0001 C CNN
F 1 "GND" H 755 1977 50  0000 C CNN
F 2 "" H 750 2150 50  0001 C CNN
F 3 "" H 750 2150 50  0001 C CNN
	1    750  2150
	1    0    0    -1  
$EndComp
Wire Wire Line
	850  1050 750  1050
Wire Wire Line
	750  1050 750  2150
Wire Wire Line
	850  2150 750  2150
Connection ~ 750  2150
Wire Wire Line
	1850 1350 2050 1350
Wire Wire Line
	2450 1350 2450 1000
Wire Wire Line
	2450 1000 2650 1000
Wire Wire Line
	1850 1850 2050 1850
Wire Wire Line
	2050 1850 2050 1500
Connection ~ 2050 1350
Wire Wire Line
	2050 1350 2450 1350
Wire Wire Line
	850  1850 1200 1850
Wire Wire Line
	1200 1850 1200 1500
Wire Wire Line
	1200 1500 1550 1500
Connection ~ 2050 1500
Wire Wire Line
	2050 1500 2050 1350
Wire Wire Line
	850  1350 1550 1350
Wire Wire Line
	1550 1350 1550 1500
Connection ~ 1550 1500
Wire Wire Line
	1550 1500 2050 1500
Wire Wire Line
	2850 1550 2850 2300
Wire Wire Line
	1850 1650 2550 1650
Wire Wire Line
	2750 1650 2750 2400
Wire Wire Line
	1850 1550 2400 1550
Wire Wire Line
	850  1650 600  1650
Wire Wire Line
	600  1650 600  2600
Wire Wire Line
	600  2600 2400 2600
Wire Wire Line
	2400 2600 2400 1550
Connection ~ 2400 1550
Wire Wire Line
	2400 1550 2850 1550
Wire Wire Line
	850  1550 550  1550
Wire Wire Line
	550  1550 550  2750
Wire Wire Line
	550  2750 2550 2750
Wire Wire Line
	2550 2750 2550 1650
Connection ~ 2550 1650
Wire Wire Line
	2550 1650 2750 1650
$Comp
L dk_USB-DVI-HDMI-Connectors:12401610E4_2A J3
U 1 1 5D812EDD
P 1350 1600
F 0 "J3" H 1350 2635 50  0000 C CNN
F 1 "12401610E4_2A" H 1350 2544 50  0000 C CNN
F 2 "digikey-footprints:USB-C_Female_12401X" H 1550 1800 60  0001 L CNN
F 3 "http://www.amphenol-icc.com/media/wysiwyg/files/drawing/12401610e4x2a.pdf" H 1550 1900 60  0001 L CNN
F 4 "12401610E4#2ACT-ND" H 1550 2000 60  0001 L CNN "Digi-Key_PN"
F 5 "12401610E4#2A" H 1550 2100 60  0001 L CNN "MPN"
F 6 "Connectors, Interconnects" H 1550 2200 60  0001 L CNN "Category"
F 7 "USB, DVI, HDMI Connectors" H 1550 2300 60  0001 L CNN "Family"
F 8 "http://www.amphenol-icc.com/media/wysiwyg/files/drawing/12401610e4x2a.pdf" H 1550 2400 60  0001 L CNN "DK_Datasheet_Link"
F 9 "/product-detail/en/amphenol-icc-commercial-products/12401610E4-2A/12401610E4-2ACT-ND/5775520" H 1550 2500 60  0001 L CNN "DK_Detail_Page"
F 10 "CONN RCP USB3.1 TYPEC 24P SMD RA" H 1550 2600 60  0001 L CNN "Description"
F 11 "Amphenol ICC (Commercial Products)" H 1550 2700 60  0001 L CNN "Manufacturer"
F 12 "Active" H 1550 2800 60  0001 L CNN "Status"
	1    1350 1600
	1    0    0    -1  
$EndComp
NoConn ~ 850  1950
NoConn ~ 1850 1750
NoConn ~ 850  2050
NoConn ~ 850  1450
$EndSCHEMATC
